$MeshFormat
2.2 0 8
$EndMeshFormat
$PhysicalNames
2
1 1 "wall"
2 2 "mesh"
$EndPhysicalNames
$Nodes
5
1 -1 -1 0
2 0 -1 0
3 0 -0 0
4 -1 -0 0
5 -0.5 -0.5 0
$EndNodes
$Elements
12
1 15 2 0 1 1
2 15 2 0 2 2
3 15 2 0 3 3
4 15 2 0 4 4
5 1 2 0 1 1 2
6 1 2 0 2 2 3
7 1 2 0 3 3 4
8 1 2 0 4 4 1
9 2 2 0 1 1 2 5
10 2 2 0 1 4 1 5
11 2 2 0 1 2 3 5
12 2 2 0 1 3 4 5
$EndElements
