$MeshFormat
2.2 0 8
$EndMeshFormat
$PhysicalNames
9
1 3010 "it"
1 3011 "il"
1 3012 "ib"
1 3013 "ir"
1 3020 "ot"
1 3021 "ol"
1 3022 "ob"
1 3023 "or"
2 4000 "mesh"
$EndPhysicalNames
$Nodes
64
1 1 0.5 0
2 -1 0.5 0
3 -1 -0.5 0
4 1 -0.5 0
5 1 2 0
6 -1 2 0
7 -1 -2 0
8 1 -2 0
9 2.752797989558076e-12 0.5 0
10 -1.433012702730996 0.2499999985471967 0
11 -1.433012701072914 -0.2500000014190787 0
12 -2.752797989558076e-12 -0.5 0
13 1.433012702730996 -0.2499999985471967 0
14 1.433012701072914 0.2500000014190787 0
15 2.752797989558076e-12 2 0
16 -1.867767480333117 1.801937734794494 0
17 -2.563662968092164 1.246979599759838 0
18 -2.94985582615833 0.4450418600496095 0
19 -2.949855822520099 -0.4450418759897443 0
20 -2.563662961390259 -1.24697960816376 0
21 -1.867767475607674 -1.801937737070148 0
22 -2.752797989558076e-12 -2 0
23 1.867767480333117 -1.801937734794494 0
24 2.563662968092164 -1.246979599759838 0
25 2.94985582615833 -0.4450418600496095 0
26 2.949855822520099 0.4450418759897443 0
27 2.563662961390259 1.24697960816376 0
28 1.867767475607674 1.801937737070148 0
29 1.925622674240014 0.003796014995552298 0
30 -1.925622674240013 -0.003796014995552194 0
31 1.426804643546932 0.8134612918767422 0
32 -1.426804643546932 -0.8134612918767419 0
33 -1.426804647300278 0.8134612890418818 0
34 1.426804647300278 -0.813461289041882 0
35 0.9456556600042699 1.045500280893115 0
36 -0.796253609538254 -1.004862807452385 0
37 -0.7962536116752705 1.004862805922285 0
38 0.9456556629454707 -1.045500278872448 0
39 2.277829457020634 0.5631997862370886 0
40 -2.277829457020634 -0.5631997862370884 0
41 -2.251780140885998 0.6028255391171815 0
42 2.251780140885998 -0.6028255391171816 0
43 -1.893092172550352 -1.05982827755265 0
44 1.893092172550352 1.05982827755265 0
45 -1.888750624285975 1.066432565978625 0
46 1.888750624285975 -1.066432565978626 0
47 -2.470988784165014 0.00716594438888123 0
48 2.470988784165015 -0.007165944388881185 0
49 0.5441496496114316 1.488784134416008 0
50 -0.1333867299402145 1.247832844023762 0
51 0.5441496508445056 -1.488784133653131 0
52 -0.1333867291282624 -1.2478328441354 0
53 1.377383441458637 1.416434949744949 0
54 1.37719509168676 -1.416721470003451 0
55 -1.319432019948084 -1.386581227146311 0
56 -1.318915172687491 1.387367449490062 0
57 -1.791272329686169 -0.5380570744162222 0
58 1.791272329686169 0.5380570744162223 0
59 1.785194157888652 -0.5457846755378667 0
60 -1.785194157888652 0.5457846755378667 0
61 -0.6498144717234707 -1.527855375746819 0
62 -0.6497111028600447 1.528012619887222 0
63 0.471283715935648 0.956423451866577 0
64 0.4712837169317922 -0.9564234513321956 0
$EndNodes
$Elements
128
1 1 2 3010 1010 1 9
2 1 2 3010 1010 9 2
3 1 2 3011 1011 2 10
4 1 2 3011 1011 10 11
5 1 2 3011 1011 11 3
6 1 2 3012 1012 3 12
7 1 2 3012 1012 12 4
8 1 2 3013 1013 4 13
9 1 2 3013 1013 13 14
10 1 2 3013 1013 14 1
11 1 2 3020 1020 5 15
12 1 2 3020 1020 15 6
13 1 2 3021 1021 6 16
14 1 2 3021 1021 16 17
15 1 2 3021 1021 17 18
16 1 2 3021 1021 18 19
17 1 2 3021 1021 19 20
18 1 2 3021 1021 20 21
19 1 2 3021 1021 21 7
20 1 2 3022 1022 7 22
21 1 2 3022 1022 22 8
22 1 2 3023 1023 8 23
23 1 2 3023 1023 23 24
24 1 2 3023 1023 24 25
25 1 2 3023 1023 25 26
26 1 2 3023 1023 26 27
27 1 2 3023 1023 27 28
28 1 2 3023 1023 28 5
29 2 2 4000 4000 37 9 50
30 2 2 4000 4000 12 36 52
31 2 2 4000 4000 9 1 63
32 2 2 4000 4000 4 12 64
33 2 2 4000 4000 38 51 54
34 2 2 4000 4000 49 35 53
35 2 2 4000 4000 1 35 63
36 2 2 4000 4000 38 4 64
37 2 2 4000 4000 7 22 61
38 2 2 4000 4000 15 6 62
39 2 2 4000 4000 51 8 54
40 2 2 4000 4000 5 49 53
41 2 2 4000 4000 5 15 49
42 2 2 4000 4000 22 8 51
43 2 2 4000 4000 30 41 47
44 2 2 4000 4000 29 42 48
45 2 2 4000 4000 19 20 40
46 2 2 4000 4000 26 27 39
47 2 2 4000 4000 17 18 41
48 2 2 4000 4000 24 25 42
49 2 2 4000 4000 30 40 57
50 2 2 4000 4000 29 39 58
51 2 2 4000 4000 41 30 60
52 2 2 4000 4000 42 29 59
53 2 2 4000 4000 10 2 33
54 2 2 4000 4000 13 4 34
55 2 2 4000 4000 1 14 31
56 2 2 4000 4000 3 11 32
57 2 2 4000 4000 11 10 30
58 2 2 4000 4000 14 13 29
59 2 2 4000 4000 52 36 61
60 2 2 4000 4000 37 50 62
61 2 2 4000 4000 39 29 48
62 2 2 4000 4000 40 30 47
63 2 2 4000 4000 35 31 53
64 2 2 4000 4000 34 38 54
65 2 2 4000 4000 8 23 54
66 2 2 4000 4000 28 5 53
67 2 2 4000 4000 16 17 45
68 2 2 4000 4000 23 24 46
69 2 2 4000 4000 27 28 44
70 2 2 4000 4000 20 21 43
71 2 2 4000 4000 18 19 47
72 2 2 4000 4000 25 26 48
73 2 2 4000 4000 6 16 56
74 2 2 4000 4000 21 7 55
75 2 2 4000 4000 36 32 55
76 2 2 4000 4000 33 37 56
77 2 2 4000 4000 1 31 35
78 2 2 4000 4000 34 4 38
79 2 2 4000 4000 33 2 37
80 2 2 4000 4000 3 32 36
81 2 2 4000 4000 43 32 57
82 2 2 4000 4000 44 31 58
83 2 2 4000 4000 34 46 59
84 2 2 4000 4000 33 45 60
85 2 2 4000 4000 31 44 53
86 2 2 4000 4000 46 34 54
87 2 2 4000 4000 22 52 61
88 2 2 4000 4000 50 15 62
89 2 2 4000 4000 32 43 55
90 2 2 4000 4000 45 33 56
91 2 2 4000 4000 49 15 50
92 2 2 4000 4000 22 51 52
93 2 2 4000 4000 49 50 63
94 2 2 4000 4000 52 51 64
95 2 2 4000 4000 56 37 62
96 2 2 4000 4000 36 55 61
97 2 2 4000 4000 41 18 47
98 2 2 4000 4000 42 25 48
99 2 2 4000 4000 40 43 57
100 2 2 4000 4000 39 44 58
101 2 2 4000 4000 46 42 59
102 2 2 4000 4000 45 41 60
103 2 2 4000 4000 30 10 60
104 2 2 4000 4000 29 13 59
105 2 2 4000 4000 14 29 58
106 2 2 4000 4000 11 30 57
107 2 2 4000 4000 39 27 44
108 2 2 4000 4000 40 20 43
109 2 2 4000 4000 17 41 45
110 2 2 4000 4000 24 42 46
111 2 2 4000 4000 19 40 47
112 2 2 4000 4000 26 39 48
113 2 2 4000 4000 12 52 64
114 2 2 4000 4000 50 9 63
115 2 2 4000 4000 35 49 63
116 2 2 4000 4000 51 38 64
117 2 2 4000 4000 6 56 62
118 2 2 4000 4000 55 7 61
119 2 2 4000 4000 31 14 58
120 2 2 4000 4000 32 11 57
121 2 2 4000 4000 13 34 59
122 2 2 4000 4000 10 33 60
123 2 2 4000 4000 44 28 53
124 2 2 4000 4000 23 46 54
125 2 2 4000 4000 43 21 55
126 2 2 4000 4000 16 45 56
127 2 2 4000 4000 2 9 37
128 2 2 4000 4000 12 3 36
$EndElements
